Craft_Beer_EDA
…
This is interesting. There are multiple sizes AND potentially multiple locations for breweries. There are still duplicates, though.

beers%>%
  group_by(name)%>%
  filter(n()>1)%>%
  arrange(name)

## # A tibble: 187 x 7
## # Groups:   name [82]
##       abv   ibu    id name                      style    brewery_id ounces
##     <dbl> <dbl> <int> <fct>                     <fct>    <fct>       <dbl>
##  1 0.051     20  1813 #9                        Fruit / 303            16
##  2 0.051     20   360 #9                        Fruit / 303            12
##  3 0.0560    37   888 1327 Pod's ESB            Extra S 380            12
##  4 0.0560    37   886 1327 Pod's ESB            Extra S 380            12
##  5 0.0560    37   612 1327 Pod's ESB            Extra S 380            12
##  6 0.054     30  2457 312 Urban Pale Ale        America 88             16
##  7 0.054     30  2202 312 Urban Pale Ale        America 88             12
##  8 0.042     18  2201 312 Urban Wheat Ale       America 88             16
##  9 0.042     18  1829 312 Urban Wheat Ale       America 88             12
## 10 0.05      NA  1293 Angry Orchard Crisp Apple Cider    434            16
## # ... with 177 more rows
…
